ISSS608 - BSW : Predictive Models with Tidymodels Approach
…
# A tibble: 1 × 12
  r.squared adj.r.s…¹ sigma stati…² p.value    df logLik     AIC     BIC devia…³
      <dbl>     <dbl> <dbl>   <dbl>   <dbl> <dbl>  <dbl>   <dbl>   <dbl>   <dbl>
1     0.973     0.973 0.165  56472.       0    21 12307. -24567. -24375.    886.
# … with 2 more variables: df.residual <int>, nobs <int>, and abbreviated
#   variable names ¹​adj.r.squared, ²​statistic, ³​deviance

glance(rf_fit$fit)

Show the code

tidy(lm_fit) %>%
  arrange(desc(abs(statistic)))

# A tibble: 22 × 5
   term         estimate std.error statistic   p.value
   <chr>           <dbl>     <dbl>     <dbl>     <dbl>
 1 (Intercept)    7.72     0.00185    4176.  0        
 2 carat_poly_1 189.       0.191       990.  0        
 3 carat_poly_2 -54.8      0.169      -324.  0        
 4 clarity_1      0.828    0.00574     144.  0        
 5 color_1       -0.458    0.00328    -140.  0        
 6 clarity_2     -0.221    0.00538     -41.0 0        
 7 color_2       -0.0861   0.00299     -28.8 3.92e-180
 8 clarity_3      0.118    0.00460      25.7 3.59e-144
 9 cut_1          0.0874   0.00419      20.8 6.89e- 96
10 clarity_4     -0.0466   0.00367     -12.7 7.16e- 37
# … with 12 more rows

Show the code

lm_predicted <- augment(lm_fit$fit,
  data = juiced_data) %>%
  rowid_to_column()
  select(lm_predicted,
  rowid,
  price,
  .fitted :.std.resid)

# A tibble: 32,364 × 8
   rowid price .fitted .resid     .hat .sigma   .cooksd .std.resid
   <int> <dbl>   <dbl>  <dbl>    <dbl>  <dbl>     <dbl>      <dbl>
 1     1  5.79    6.04 -0.254 0.000527  0.165 0.0000564     -1.53 
 2     2  5.79    6.10 -0.311 0.000556  0.165 0.0000894     -1.88 
 3     3  5.79    6.34 -0.545 0.00136   0.165 0.000674      -3.30 
 4     4  5.81    6.19 -0.376 0.000642  0.165 0.000151      -2.27 
 5     5  5.82    6.04 -0.220 0.00115   0.165 0.0000928     -1.33 
 6     6  5.82    6.23 -0.413 0.000924  0.165 0.000262      -2.50 
 7     7  5.82    6.05 -0.229 0.000610  0.165 0.0000532     -1.38 
 8     8  5.82    6.14 -0.315 0.000761  0.165 0.000125      -1.90 
 9     9  5.83    5.94 -0.113 0.000972  0.165 0.0000208     -0.686
10    10  5.83    6.09 -0.260 0.000579  0.165 0.0000651     -1.57 
# … with 32,354 more rows
…
