ISSS608 - BSW : Financial Data Analysis
…
Show the code

stock_monthly_returns <- Stock_data %>%
  group_by(Name) %>%
  tq_transmute(select = adjusted,
               mutate_fun = periodReturn,
               period = "monthly",
               type = "arithmetic")

stock_monthly_returns

# A tibble: 72 × 3
# Groups:   Name [6]
   Name      date       monthly.returns
   <chr>     <date>               <dbl>
 1 DBS Group 2022-01-31          0.0735
 2 DBS Group 2022-02-28         -0.0392
 3 DBS Group 2022-03-31          0.0594
 4 DBS Group 2022-04-29         -0.0436
 5 DBS Group 2022-05-31         -0.0776
 6 DBS Group 2022-06-30         -0.0407
 7 DBS Group 2022-07-29          0.0603
 8 DBS Group 2022-08-31          0.0472
 9 DBS Group 2022-09-30          0.0242
10 DBS Group 2022-10-31          0.0243
# … with 62 more rows
…
Show the code

SGBank_returns_monthly <- SGBank_daily %>%
  group_by(Symbol) %>%
  tq_transmute(select = adjusted,
  mutate_fun = periodReturn,
  period = "monthly",
  col_rename = "Ra")

Show the code

SGBank_returns_monthly

# A tibble: 81 × 3
# Groups:   Symbol [3]
   Symbol date             Ra
   <chr>  <date>        <dbl>
 1 D05.SI 2020-04-30  0.120  
 2 D05.SI 2020-05-29  0.00874
 3 D05.SI 2020-06-30  0.0683 
 4 D05.SI 2020-07-30 -0.0495 
 5 D05.SI 2020-08-31  0.0646 
 6 D05.SI 2020-09-30 -0.0460 
 7 D05.SI 2020-10-30  0.0221 
 8 D05.SI 2020-11-30  0.248  
 9 D05.SI 2020-12-31  0.00119
10 D05.SI 2021-01-29 -0.00198
# … with 71 more rows
…
