ISSS608 - Shiny App
…
Show the code

airport <- read_csv("data/airports.csv")

airport

# A tibble: 341 × 7
   IATA  AIRPORT                             CITY  STATE COUNTRY LATIT…¹ LONGI…²
   <chr> <chr>                               <chr> <chr> <chr>     <dbl>   <dbl>
 1 ABQ   Albuquerque International           Albu… NM    USA        35.0  -107. 
 2 ANC   Ted Stevens Anchorage International Anch… AK    USA        61.2  -150. 
 3 ATL   William B Hartsfield-Atlanta Intl   Atla… GA    USA        33.6   -84.4
 4 AUS   Austin-Bergstrom International      Aust… TX    USA        30.2   -97.7
 5 BDL   Bradley International               Wind… CT    USA        41.9   -72.7
 6 BHM   Birmingham International            Birm… AL    USA        33.6   -86.8
 7 BNA   Nashville International             Nash… TN    USA        36.1   -86.7
 8 BOS   Gen Edw L Logan Intl                Bost… MA    USA        42.4   -71.0
 9 BUF   Buffalo Niagara Intl                Buff… NY    USA        42.9   -78.7
10 BUR   Burbank-Glendale-Pasadena           Burb… CA    USA        34.2  -118. 
# … with 331 more rows, and abbreviated variable names ¹​LATITUDE, ²​LONGITUDE
…
