ISSS608 - Exploration 2 - Pyramid Chart
…
Show the code

th_test <- pop_sgp %>%
  select(-c("SZ", "FA", "Time")) %>%
  group_by(`PA`) %>%
  summarise(`Count` = sum(`Pop`)) %>%
  ungroup()

Show the code

arrange(th_test, desc(th_test$Count))

# A tibble: 55 × 2
   PA             Count
   <chr>          <dbl>
 1 Bedok         278870
 2 Tampines      265610
 3 Jurong West   258520
 4 Sengkang      253050
 5 Woodlands     252720
 6 Hougang       227720
 7 Yishun        222770
 8 Choa Chu Kang 190460
 9 Punggol       186250
10 Bukit Batok   165310
# … with 45 more rows
…
