ISSS608 - Exploration 4 - Interactive Heatmap & Parallele Coord.
…
Show the code

drink %>% 
  janitor::get_dupes()

No variable names specified - using all columns.

# A tibble: 242 × 19
   Categ…¹ Name  Porti…² Calor…³ Calor…⁴ Total…⁵ Satur…⁶ Trans…⁷ Chole…⁸ Sodiu…⁹
   <chr>   <chr>   <dbl>   <dbl>   <dbl>   <dbl>   <dbl>   <dbl>   <dbl>   <dbl>
 1 iced-c… Cold…      12      50       0       0       0       0       0      25
 2 iced-c… Cold…      12      50       0       0       0       0       0      25
 3 iced-c… Cold…      16      80       0       0       0       0       0      30
 4 iced-c… Cold…      16      80       0       0       0       0       0      30
 5 iced-c… Cold…      24     100       0       0       0       0       0      40
 6 iced-c… Cold…      24     100       0       0       0       0       0      40
 7 iced-c… Cold…      30     130       0       0       0       0       0      45
 8 iced-c… Cold…      30     130       0       0       0       0       0      45
 9 iced-c… Iced…      12       0       0       0       0       0       0       0
10 iced-c… Iced…      12       0       0       0       0       0       0       0
# … with 232 more rows, 9 more variables: `Total Carbohydrate(g)` <dbl>,
#   `Dietary Fiber(g)` <dbl>, `Sugars(g)` <dbl>, `Protein(g)` <dbl>,
#   `Caffeine(mg)` <chr>, Size <chr>, Milk <chr>, `Whipped Cream` <chr>,
#   dupe_count <int>, and abbreviated variable names ¹​Category,
#   ²​`Portion(fl oz)`, ³​Calories, ⁴​`Calories from fat`, ⁵​`Total Fat(g)`,
#   ⁶​`Saturated fat(g)`, ⁷​`Trans fat(g)`, ⁸​`Cholesterol(mg)`, ⁹​`Sodium(mg)`
…
